{
  "mainMenu.home": "Главная",
  "mainMenu.about": "О Нас",
  "mainMenu.reviews": "Отзывы",
  "mainMenu.payment": "Оплата",
  "mainMenu.partners": "Партнеры",
  "mainMenu.contacts": "Контакты",
  "mainMenu.conditions": "Условия",
  "search": "Поиск",
  "city": "Город",
  "place": "Место",
  "pickupDate": "Дата получения",
  "dropoffDate": "Дата возврата",
  "login": "Вход",
  "email": "Email",
  "password": "Пароль",
  "registration": "Регистрация",
  "firstName": "Имя",
  "lastName": "Фамилия",
  "middleName": "Отчество",
  "birthDate": "Дата рождения",
  "register.email": "Email",
  "passport.number": "Паспорт: серия/номер",
  "passport.issuedDate": "Паспорт: дата выдачи",
  "passport.issuedBy": "Паспорт: место выдачи",
  "passwordRepeat": "Повторите пароль",
  "license.serial": "Права: серия и номер",
  "license.issuedDate": "Права: дата выдачи",
  "phone": "Телефон",
  "legalEntity": "Юридическое лицо",
  "companyName": "Наименование",
  "inn": "ИНН",
  "kpp": "КПП",
  "passwordMismatch": "Пароль не совпадает с повторением",
  "address": "Адрес",
  "userAlreadyExists": "Пользователь уже существует",
  "activationEmailSent": "На указанный email выслано письмо с активационными данными",
  "badEmail": "Неправильный email",
  "badDriverLicense": "Серия и номер водительского удостоверения указаны некорректно. Серия может состоять из двух цифр и двух букв или из четырех цифр, а номер − из 6 цифр",
  "badPhone": "Неправильный телефон",
  "badFirstName": "Неправильный формат имени, используйте только буквы",
  "badLastName": "Неправильный формат фамилии, используйте только буквы",
  "badPassportNum": "Неправильный формат серии/номера пасспорта, должен содержать только 10 цифр",
  "badPassportIssuedBy": "Пожалуйста, укажите место выдачи паспорта",
  "badPassword": "Неправильный пароль",
  "passwordLength": "Пароль должен содержать минимум 6 символов",
  "userNotFound": "Пользователь не найден",
  "loginRegister": "Вход / Регистрация",
  "logout": "Выход",
  "promo": "Программа лояльности",
  "orders": "Мои заказы",
  "settings": "Настройки",
  "newPassword": "Новый пароль",
  "currentPassword": "Текущий пароль",
  "save": "Сохранить",
  "requiredField": "Обязательное поле",
  "accountUpdated": "Данные обновлены",
  "adultRequired": "Вам должно быть не менее 18 лет",
  "wrongDate": "Неправильная дата",
  "minTen": "Минимум 10 цифр",
  "userAgreement": "Пользовательское соглашение",
  "accept": "Принимаю",
  "deny": "Отказываюсь",
  "pleaseConfirmEmail": "Вы сможете забронировать автомобиль только после подтверждения email!",
  "addDriver": "Добавить водителя",
  "carSelection": "Выбор автомобиля",
  "rentDetails": "Детали аренды",
  "continueBooking": "Продолжить",
  "additionalOptions": "Дополнительные опции",
  "bookingSummary": "Итог",
  "authorization": "Авторизация",
  "youBookingCar": "Автомобиль",
  "imagesOfCar": "Фото",
  "vendorInfo": "Информация производителя",
  "fuel": "Топливо",
  "engineVol": "Объем двигателя",
  "doors": "Двери",
  "carBody": "Кузов",
  "carClass": "Класс",
  "color": "Цвет",
  "wheelDrive": "Привод",
  "transmission": "Трансмиссия",
  "automatic": "Автоматическая",
  "manual": "Механичская",
  "fuelConsumption": "Расход топлива",
  "liquidVolMeasureAbbr": "л",
  "distanceMeasureAbbr": "км",
  "conditioning": "Кондиционер",
  "yes": "Да",
  "no": "Нет",
  "cubicMeasure": "л",
  "existingUsersLogin": "Уже зарегестрированы?",
  "emailValidationCodeMsg": "На вашу почту выслано письмо с кодом активации вашего аккаунта, скопируйте код и вставте его в поле ниже",
  "confirmation": "Подтверждение почты",
  "code": "Код",
  "confirm": "Подтверждение",
  "withRunLimit": "С ограничением пробега",
  "runLimit": "Ограничение пробега",
  "help": "Помощь",
  "carRentals": "Прокат автомобилей",
  "carSearch": "Поиск автомобиля",
  "carPickUpPlace": "Место получения автомобиля",
  "pickUp": "Получение",
  "dropOff": "Возврат",
  "placeSearchPlaceHolder": "Место, например аэропорт",
  "bookingBtn": "Бронировать",
  "chosenParams": "Параметры выбранного автомобиля",
  "filterByParams": "Фильтр по параметрам",
  "carModel": "Модель",
  "applyFilter": "Применить",
  "cancel": "Отменить",
  "producedYear": "Год выпуска",
  "menu": "Меню",
  "forPartners": "Партнерам",
  "info": "Информация",
  "register": "Регистрация",
  "all": "Все",
  "day": "День",
  "discount": "Скидка",
  "wrongCredentials": "Неверные логин/пароль",
  "resetPassword": "Не можете войти?",
  "phonePlaceholder": "напр. +78121234568",
  "datePlaceholder": "формат ГГГГММДД",
  "yourProfile": "Ваш профиль",
  "selectionResult": "Результат выбора автомобиля",
  "video": "Видео",
  "aboutModel": "О Модели",
  "run": "Пробег",
  "age": "Возраст",
  "capacity": "Вместимость",
  "co2abbr": "г/km",
  "emission": "Выброс",
  "additionalOptionsChoice": "Выбор дополнительных опций",
  "badCode": "Неверный код",
  "choosePaymentType": "Выберите способ оплаты",
  "bankCard": "Банковская карта",
  "qiwi": "Qiwi",
  "webmoney": "Webmoney",
  "sberOnline": "Сбербанк онлайн",
  "noFee": "Без комиссии",
  "initialFee": "Сумма первоначального взноса",
  "rentPrice": "Стоимость аренды",
  "pay": "Оплатить",
  "inputInitialPayment": "Введите сумму оплаты (мин. {{minAmount}})",
  "coupon": "Введите промокод (если есть)",
  "send": "Отправить",
  "toPay": "К оплате",
  "fee": "Комиссия {{feePercent}}%",
  "bookingConfirmation": "Подтверждение бронирования",
  "carNotAvailable": "Извините, машина не доступна",
  "releaseIn": "Освобождается через {{release}} ч.",
  "profile": "Профиль",
  "bookings": "Бронирования",
  "change": "Изменить"
}