{
  "mainMenu.home": "Home",
  "mainMenu.about": "About",
  "mainMenu.reviews": "Reviews",
  "mainMenu.payment": "Payment",
  "mainMenu.partners": "Partners",
  "mainMenu.contacts": "Contacts",
  "mainMenu.conditions": "Conditions",
  "search": "Search",
  "city": "City",
  "place": "Place",
  "pickupDate": "Pick up Date",
  "dropoffDate": "Drop off Date",
  "login": "Login",
  "email": "Email",
  "register.password": "Password: minimum six characters",
  "password": "Password",
  "registration": "Registration",
  "firstName": "First name",
  "lastName": "Last name",
  "middleName": "Middle name",
  "birthDate": "Birth date",
  "register.email": "Email",
  "passport.number": "Passport: serial/number",
  "passport.issuedDate": "Passport: issued date",
  "passport.issuedBy": "Passport: issued by",
  "passwordRepeat": "Password repeat",
  "license.serial": "Driver license: number",
  "license.issuedDate": "Driver license: Issued date",
  "phone": "Phone",
  "legalEntity": "Legal Entity",
  "companyName": "Company Name",
  "inn": "INN",
  "kpp": "KPP",
  "passwordMismatch": "Password mismatch",
  "address": "Address",
  "userAlreadyExists": "User already exists",
  "activationEmailSent": "We've sent an activation link to email address you provided",
  "badEmail": "Bad email",
  "badDriverLicense": "Serial and number of driver license are in wrong format, currently only Russian driver license is accepted",
  "badPhone": "Wrong phone number",
  "badFirstName": "Wrong first name, please use letters only",
  "badLastName": "Wrong last name, please use letters only",
  "badPassportNum": "Wrong passport number, it should contain ten digits",
  "badPassportIssuedBy": "Please, specify passport's issued location",
  "badPassword": "Wrong password",
  "passwordLength": "Password must contain at least 6 characters",
  "userNotFound": "User not found",
  "loginRegister": "Login / Register",
  "logout": "Logout",
  "promo": "Special offerings",
  "orders": "Orders",
  "settings": "Account",
  "newPassword": "New password",
  "currentPassword": "Current password",
  "save": "Save",
  "requiredField": "This field is required",
  "accountUpdated": "Your account has been successfully updated",
  "adultRequired": "You must be at least 18 years old",
  "wrongDate": "Wrong date",
  "minTen": "At least 10 digits please",
  "userAgreement": "User agreement",
  "accept": "Accept",
  "deny": "Deny",
  "pleaseConfirmEmail": "In order to book a car, please confirm your email!",
  "addDriver": "Add driver",
  "carSelection": "Car selection",
  "rentDetails": "Rent details",
  "continueBooking": "Proceed booking",
  "additionalOptions": "Additional options",
  "bookingSummary": "Summary",
  "authorization": "Authorization",
  "youBookingCar": "Car",
  "imagesOfCar": "Car photo",
  "vendorInfo": "Vendor info",
  "fuel": "Fuel",
  "engineVol": "Engine volume",
  "doors": "Doors",
  "carBody": "Body",
  "carClass": "Type",
  "color": "Colour",
  "wheelDrive": "Wheel drive",
  "transmission": "Transmission",
  "automatic": "Аutomatic",
  "manual": "Manual",
  "fuelConsumption": "Fuel consumption",
  "liquidVolMeasureAbbr": "l",
  "distanceMeasureAbbr": "km",
  "conditioning": "Conditioning",
  "yes": "Yes",
  "no": "No",
  "cubicMeasure": "l",
  "existingUsersLogin": "Existing users login",
  "emailValidationCodeMsg": "An email with activation code has been sent. Please, paste code into input below",
  "confirmation": "Email confirmation",
  "code": "Code",
  "confirm": "Confirm",
  "withRunLimit": "Run limit",
  "runLimit": "Run limit",
  "help": "Help",
  "carRentals": "Car rentals",
  "carSearch": "Car search",
  "carPickUpPlace": "Car pick up place",
  "pickUp": "Pick up",
  "dropOff": "Drop off",
  "placeSearchPlaceHolder": "Enter a place, e.g Airport",
  "bookingBtn": "Select",
  "chosenParams": "Selected car parameters",
  "filterByParams": "Filter by parameters",
  "carModel": "Model",
  "applyFilter": "Apply",
  "cancel": "Cancel",
  "producedYear": "Year",
  "menu": "Menu",
  "forPartners": "For partners",
  "info": "Information",
  "register": "Sign up",
  "all": "All",
  "day": "Day",
  "discount": "Discount",
  "wrongCredentials": "Wrong credentials",
  "resetPassword": "Trouble to sign in?",
  "phonePlaceholder": "eg. (812) 123 45 68",
  "datePlaceholder": "eg. YYYYMMDD",
  "yourProfile": "Your profile",
  "selectionResult": "Selection summary",
  "video": "Video",
  "aboutModel": "About",
  "run": "Run",
  "age": "Age",
  "capacity": "Capacity",
  "co2abbr": "g/km",
  "emission": "Emission",
  "additionalOptionsChoice": "Additional options",
  "badCode": "Bad code",
  "choosePaymentType": "Choose payment type",
  "bankCard": "Bank card",
  "qiwi": "Qiwi",
  "webmoney": "Webmoney",
  "sberOnline": "Sberbank online",
  "noFee": "no fee",
  "initialFee": "Initial fee",
  "rentPrice": "Rent price",
  "pay": "Pay",
  "inputInitialPayment": "Type initial payment amount (min. {{minAmount}})",
  "coupon": "Enter a promo code (if you have one)",
  "send": "Send",
  "toPay": "Total",
  "fee": "Fee {{feePercent}}%",
  "bookingConfirmation": "Booking confirmation",
  "carNotAvailable": "Sorry, this car is not available",
  "releaseIn": "Available in {{release}} hour",
  "profile": "Your profile",
  "bookings": "Your bookings",
  "change": "Change"
}