<svg xmlns="http://www.w3.org/2000/svg" width="13.423mm" height="5.402mm" viewBox="0 0 38.049 15.312">
    <path
            d="M0,10.672a1.985,1.985,0,0,0,1.385,1.69,6.823,6.823,0,0,0,.716.109,3.031,3.031,0,0,0,5.933.668,4.644,4.644,0,0,0,1.58.138c.443-.083,7.951-.028,9.946-.083s5.985.554,6.067.5.444-.36.444-.36h.192a3.031,3.031,0,0,0,5.647.1,5.929,5.929,0,0,1,1.032.092A10.968,10.968,0,0,0,37.625,12.5c.776-.637.249-.61.249-.61l-.111-.859.25-.194V9.7c0-.3-.609-.221-.554-1.524s-2.133-2.05-3.269-2.272-4.377-.776-4.377-.776l-.156-.094,0,0a23.426,23.426,0,0,0-6.94-3.724l.06-.009A21.917,21.917,0,0,0,19.146.421C12.525-.77,3.493.92,2.911,1.169s-.5.5-.5.5S.865,4.825.4,5.907c.842-.156.83,1.3.733,1.717-.073.311-.546.114-.858-.056A17,17,0,0,1,.307,9.508,2.111,2.111,0,0,0,0,10.672ZM7.237,1.344,6.21,5.4c-1.184-.1-3.43-.375-3.382-1.213.055-.97.776-2.549,1.579-2.66C4.657,1.495,5.751,1.421,7.237,1.344Zm2.283-.1-.527,4.27c-.884-.026-1.569-.047-1.965-.061l.895-4.14C8.427,1.287,8.965,1.263,9.52,1.241Zm5.435-.123L14.8,5.672c-2.08-.056-4.045-.111-5.526-.153l.53-4.289C11.51,1.165,13.359,1.116,14.955,1.118Zm8.22,2.117L23.3,5.9l-6.831-.181-.4-4.589c.752.014,1.409.045,1.916.1A11.838,11.838,0,0,1,23.175,3.235Zm6.23,1.8a1.136,1.136,0,0,1-.562.15A4.258,4.258,0,0,1,26.4,4.493c-.748-.471-4.267-2.438-4.793-2.743-.257-.149.213-.284.762-.384A24.206,24.206,0,0,1,29.405,5.036Zm-4.766,1.39a.67.67,0,0,1-.187-.08c-.059-.034-.117-.071-.172-.11a3.243,3.243,0,0,1-.313-.262l-.015-.015,0-.028c-.037-.366-.06-.733-.073-1.1a10.715,10.715,0,0,1,.015-1.106,10.594,10.594,0,0,1,.14,1.1c.028.359.047.718.052,1.078.081.092.166.183.253.271.046.047.093.094.143.138A1.048,1.048,0,0,0,24.639,6.426Zm-.116-2.318c1,.643,2.165,1.446,2.27,1.882l-2.128-.056Zm12.216,3.35a5.053,5.053,0,0,0-1.078-.49,11.077,11.077,0,0,0-1.139-.324c-.769-.18-1.549-.32-2.334-.426-.783-.121-1.571-.206-2.359-.289-.394-.042-.789-.079-1.185-.113s-.791-.069-1.187-.1c.8-.012,1.59.021,2.384.073s1.585.14,2.374.246a21.121,21.121,0,0,1,2.343.472A6.521,6.521,0,0,1,36.739,7.458Zm-2.19,3.716a.43.43,0,0,1,.176-.187,1.286,1.286,0,0,1,.4-.137,3.365,3.365,0,0,1,.4-.052c.267-.017.531-.02.794-.011s.528.033.778.012a2.133,2.133,0,0,0,.744-.211,1.945,1.945,0,0,1-.729.313,6.265,6.265,0,0,1-.793.05c-.261.011-.521.018-.777.046a1.945,1.945,0,0,0-.714.17.231.231,0,0,0-.094.09.161.161,0,0,0,0,.124.967.967,0,0,0,.151.317,1.4,1.4,0,0,0,.578.442,4.569,4.569,0,0,0,1.514.3,3.577,3.577,0,0,1-1.577-.15,1.5,1.5,0,0,1-.676-.475,1.117,1.117,0,0,1-.191-.385A.369.369,0,0,1,34.549,11.174ZM32.417,7.125c.166-.388,3.269.36,3.657.582s.554,1.247.554,1.247c.028.333-2.022.25-2.854-.111S32.25,7.513,32.417,7.125ZM27.07,12.278a2.036,2.036,0,1,1,2.037,2.036A2.036,2.036,0,0,1,27.07,12.278Zm-1.335-1.4a3.541,3.541,0,0,1,.76-1.215,3.6,3.6,0,0,1,1.188-.825,3.632,3.632,0,0,1,2.847,0,3.61,3.61,0,0,1,1.188.825,3.54,3.54,0,0,1,.761,1.215,3.449,3.449,0,0,1,.2,1.4,3.7,3.7,0,0,0-1.131-2.443,3.54,3.54,0,0,0-4.886,0,3.7,3.7,0,0,0-1.131,2.443A3.436,3.436,0,0,1,25.734,10.882ZM8.755,10.747a5.4,5.4,0,0,0-.889-1.777,3.159,3.159,0,0,0-.709-.688,2.191,2.191,0,0,0-.212-.126.809.809,0,0,1-.219-.167,1.1,1.1,0,0,1-.246-.477,2.9,2.9,0,0,1-.035-1.034l.008-.052c-.3-.028-.6-.059-.9-.094a15.32,15.32,0,0,1-2.022-.35,3.968,3.968,0,0,1-.49-.166,1.15,1.15,0,0,1-.433-.3A1.318,1.318,0,0,1,2.3,4.547a3.231,3.231,0,0,1,.235-1,5.548,5.548,0,0,1,.462-.912,5.5,5.5,0,0,0-.437.922,3.173,3.173,0,0,0-.208.99,1.253,1.253,0,0,0,.311.919,1.058,1.058,0,0,0,.411.265,3.782,3.782,0,0,0,.482.15A15.458,15.458,0,0,0,5.564,6.2c.3.031.606.057.909.082a6.012,6.012,0,0,1,.182-.8l.966-4.2L6.759,5.5v0a5.9,5.9,0,0,0-.167.785q.5.038,1.009.069c2.6.156,5.205.211,7.812.272,0-.914,0-1.828.011-2.742l.023-1.4c.016-.468.023-.935.045-1.4.026.468.039.935.059,1.4l.036,1.4c.022.916.025,1.832.038,2.747l.15,0c2.727.1,5.451.233,8.174.385l.918.054c-.028-.291-.058-.581-.094-.87q.064.435.116.872l3.144.185,4.082.273-4.087-.17L24.9,7.232c.08.7.139,1.4.167,2.1a15.094,15.094,0,0,1-.013,1.574,5.945,5.945,0,0,1-.28,1.557.066.066,0,0,1-.061.043h0L21,12.487l-3.712-.04L13.576,12.4l-3.712-.057h.019a.741.741,0,0,1-.551-.159,1.124,1.124,0,0,1-.325-.443,2.2,2.2,0,0,1-.144-.51A4.322,4.322,0,0,0,8.755,10.747ZM3.091,12.278a2.036,2.036,0,1,1,2.036,2.036A2.036,2.036,0,0,1,3.091,12.278Zm-1.336-1.4a3.535,3.535,0,0,1,.761-1.215A3.605,3.605,0,0,1,3.7,8.842a3.632,3.632,0,0,1,2.847,0,3.607,3.607,0,0,1,1.188.825,3.542,3.542,0,0,1,.76,1.215,3.439,3.439,0,0,1,.2,1.4A3.694,3.694,0,0,0,7.57,9.836a3.539,3.539,0,0,0-4.886,0,3.7,3.7,0,0,0-1.131,2.443A3.439,3.439,0,0,1,1.755,10.882ZM15.66,9.5c-.009.907.008,1.818-.081,2.724l1.712.025L21,12.306l3.664.071a5.948,5.948,0,0,0,.278-1.475c.04-.519.054-1.041.047-1.563-.011-.7-.052-1.407-.116-2.108l-.939-.042c-2.724-.117-5.449-.256-8.172-.336l-.141,0c.014.787.029,1.577.032,2.367l1.108.019c1.274.036,2.549.062,3.823.108l1.911.071c.637.031,1.274.056,1.911.093-.638.01-1.275.006-1.913.01l-1.912-.012c-1.274-.01-2.549-.04-3.824-.059l-1.1-.029C15.659,9.446,15.66,9.473,15.66,9.5ZM7.994,8.87A5.371,5.371,0,0,1,8.931,10.7a4.4,4.4,0,0,1,.114.5,2,2,0,0,0,.133.465.932.932,0,0,0,.27.368.56.56,0,0,0,.4.12h.019l3.713.04,1.994.029c.01-.439-.013-.879-.028-1.319L15.5,9.5l0-.089c-.852-.022-1.7-.044-2.556-.074l-1.911-.071c-.637-.032-1.274-.056-1.91-.094.638-.01,1.275-.007,1.913-.01l1.912.012c.849.007,1.7.022,2.546.037l-.073-2.37c-2.608-.076-5.221-.131-7.827-.32q-.508-.038-1.017-.085c0,.018-.005.035-.007.053a2.789,2.789,0,0,0,.045.986.964.964,0,0,0,.219.415.663.663,0,0,0,.185.136,2.264,2.264,0,0,1,.226.13A3.327,3.327,0,0,1,7.994,8.87Z"/>
</svg>