<svg xmlns="http://www.w3.org/2000/svg" width="14.546mm" height="4.327mm" viewBox="0 0 41.234 12.266">
    <path
          d="M.3,7.69c.442,1.085.288,1.417.885,1.616s4.361,1.084,4.361,1.084l.657.028a3.134,3.134,0,0,0,5.6.233l.652.027,19.016.177,1.079.028a2.889,2.889,0,0,0,4.849.123l1.023.026a6.849,6.849,0,0,1,1.7-.332c.8-.022,1.107-1,1.107-1.35V7.89a3.9,3.9,0,0,0-.567-.811,3.6,3.6,0,0,1-1.4-.384A3.012,3.012,0,0,1,38.09,5.587s.723.248,1.452.524a5.986,5.986,0,0,0-1.519-.7c-2.39-.731-9.917-1.7-9.917-1.7l-.041-.018,0,0C27.271,3.248,22.393.559,20.937.5V.517L20.889.5S14.16-.345,12.012.164c-.118.028-.245.06-.378.094A34.982,34.982,0,0,0,4.509,2.229c-.023.006-.044.008-.067.016-.443.133-2.5.487-2.568.487a1.9,1.9,0,0,0-.487-.066c-.32,0-.945.781-.853,1.729a1.884,1.884,0,0,1,.056-.224c.133-.416.379-.753.55-.753s.2.337.07.753-.379.753-.55.753a.111.111,0,0,1-.08-.038c.008.647-.3.763-.432.99C-.008,6.141-.141,6.606.3,7.69ZM39.529,9.914l.019-.115a2.525,2.525,0,0,1,.1-.4l.035-.1.019-.046a.284.284,0,0,1,.035-.065.385.385,0,0,1,.217-.133,1.157,1.157,0,0,1,.42-.018,1.781,1.781,0,0,1,.4.089c-.135.008-.267.016-.4.028a1.572,1.572,0,0,0-.366.07.222.222,0,0,0-.112.076.083.083,0,0,0-.011.023l-.017.047-.03.091c-.028.087-.054.176-.077.265a5.6,5.6,0,0,1,.788.088,5.949,5.949,0,0,1-.908.094Zm-.951-2.356A6.5,6.5,0,0,1,39.8,7.6a6.583,6.583,0,0,1,1.195.244A6.556,6.556,0,0,1,39.772,7.8,6.5,6.5,0,0,1,38.577,7.558ZM3.748,5.465c.963.04,1.925.1,2.885.211-.966.042-1.93.023-2.893-.01S1.815,5.571.855,5.455C1.821,5.412,2.785,5.431,3.748,5.465ZM1.782,3.772c.171,0,.2.337.07.753s-.379.753-.55.753-.2-.337-.07-.753S1.611,3.772,1.782,3.772ZM6.124,2.644a21.91,21.91,0,0,1,2.345.018,19.184,19.184,0,0,1,2.326.269c-.389-.03-.777-.058-1.166-.073s-.777-.036-1.166-.042c-.777-.013-1.554-.01-2.329.029s-1.548.105-2.316.213q-.576.081-1.145.206c-.381.077-.757.178-1.131.287a9.978,9.978,0,0,1,1.108-.383c.377-.1.759-.189,1.144-.262A17.235,17.235,0,0,1,6.124,2.644ZM9.637.828c-2.153.653-4.532,1.461-4.532,1.461a.461.461,0,0,0-.115-.056A35.818,35.818,0,0,1,9.637.828Zm4.519,0L14.9,3.387c-1.808-.235-3.225-.475-3.748-.611-1.439-.376-1.129-.731-1-.93A21.632,21.632,0,0,1,14.156.828ZM25.317,4.016a61.736,61.736,0,0,1-10.094-.587L14.455.776c.425-.072.808-.125,1.1-.147a41.836,41.836,0,0,1,5.18.332C22.085,1.049,25.317,4.016,25.317,4.016Zm2.565-.223a3.459,3.459,0,0,1-1.524.223l-3.624-2.7-1.119-.5A45.187,45.187,0,0,1,27.882,3.792Zm5.361,5.581a1.771,1.771,0,1,1,1.772,1.771A1.771,1.771,0,0,1,33.242,9.373Zm-1.661-.6a3.4,3.4,0,0,1,.632-1.547,3.483,3.483,0,0,1,1.3-1.076A3.5,3.5,0,0,1,36.8,6.3,3.49,3.49,0,0,1,38,7.491a3.4,3.4,0,0,1,.488,1.6,3.343,3.343,0,0,1-.33,1.611A3.473,3.473,0,0,0,37.8,7.616a3.338,3.338,0,0,0-5.4-.244,3.474,3.474,0,0,0-.635,3.039A3.361,3.361,0,0,1,31.581,8.776ZM13.911,4.382,12.453,4.3,10.437,4.17c-1.344-.083-2.689-.153-4.035-.2-.673-.025-1.346-.044-2.019-.044-.336,0-.673,0-1.009.021-.168.008-.336.02-.5.04a1.5,1.5,0,0,0-.488.116,1.508,1.508,0,0,1,.486-.128c.167-.023.335-.039.5-.052.336-.025.673-.037,1.01-.046.674-.016,1.348-.013,2.022,0,1.347.025,2.695.078,4.041.142q1.744.1,3.49.187a1.236,1.236,0,0,1,.2-.517.515.515,0,0,1,.353-.235.1.1,0,1,1,.014.2.339.339,0,0,0-.2.153,1.022,1.022,0,0,0-.157.409q2.189.108,4.38.212l7.879.413a1.509,1.509,0,0,0-.7-.685.1.1,0,0,1,.074-.187,1.777,1.777,0,0,1,.848.884l4,.225,4.034.247L30.62,5.173l-3.935-.166a2.287,2.287,0,0,1,.115.531q.876.014,1.752.033,2.024.055,4.047.128-2.024-.023-4.049-.029-.87-.005-1.74-.008a2.949,2.949,0,0,1,0,.331c-.054.922-.109,2.189-.143,3.024l.226.012q2.021.107,4.045.168-2.025-.009-4.049-.07l-.226-.009c-.018.456-.03.761-.03.77a.1.1,0,0,1-.1.1h0c-.339,0-8.319-.09-9.006-.223a4.038,4.038,0,0,1-3.377-3.351A6.211,6.211,0,0,1,13.911,4.382ZM7.142,9.129a1.92,1.92,0,1,1,1.92,1.92A1.92,1.92,0,0,1,7.142,9.129ZM5.369,8.415a3.669,3.669,0,0,1,.683-1.663A3.751,3.751,0,0,1,7.45,5.6a3.761,3.761,0,0,1,3.531.161,3.754,3.754,0,0,1,1.288,1.277A3.655,3.655,0,0,1,12.8,8.752a3.609,3.609,0,0,1-.35,1.736,3.743,3.743,0,0,0-.377-3.329,3.6,3.6,0,0,0-5.834-.264,3.742,3.742,0,0,0-.677,3.281A3.633,3.633,0,0,1,5.369,8.415ZM.279,6.141c.9-.016,1.793.028,2.686.088s1.784.147,2.671.288c-.9.016-1.792-.029-2.685-.088S1.167,6.283.279,6.141ZM14.111,4.393a6,6,0,0,0,.235,1.967,3.807,3.807,0,0,0,3.22,3.2c.63.122,7.936.208,8.872.218,0-.125.014-.366.026-.673-1.207-.044-2.414-.1-3.62-.181-1.348-.089-2.7-.211-4.035-.409a12.83,12.83,0,0,1-1.993-.43,3.068,3.068,0,0,1-.482-.2,1.117,1.117,0,0,1-.414-.366.421.421,0,0,1-.053-.316.553.553,0,0,1,.16-.258,1.687,1.687,0,0,1,.452-.29A9.321,9.321,0,0,1,18.448,6.1c.665-.127,1.336-.225,2.007-.307s1.345-.147,2.019-.2,1.352-.079,2.028-.078q1.05,0,2.1.014A2.022,2.022,0,0,0,26.469,5l-7.961-.371-4.036-.213Zm8.745,4.381c1.2.1,2.407.17,3.613.232.034-.836.089-2.1.143-3.026a2.743,2.743,0,0,0,0-.32c-.7,0-1.4,0-2.106.015a37.447,37.447,0,0,0-4.026.3c-.668.085-1.334.184-1.993.314a9.23,9.23,0,0,0-1.919.548,1.512,1.512,0,0,0-.4.25.249.249,0,0,0-.076.333.936.936,0,0,0,.339.295,2.891,2.891,0,0,0,.45.191,12.678,12.678,0,0,0,1.959.431C20.168,8.543,21.512,8.661,22.855,8.774Z"/>
</svg>