<svg xmlns="http://www.w3.org/2000/svg" width="19" height="19" viewBox="0 0 19 19">
  <metadata><?xpacket begin="﻿" id="W5M0MpCehiHzreSzNTczkc9d"?>
<x:xmpmeta xmlns:x="adobe:ns:meta/" x:xmptk="Adobe XMP Core 5.6-c138 79.159824, 2016/09/14-01:09:01        ">
   <rdf:RDF xmlns:rdf="http://www.w3.org/1999/02/22-rdf-syntax-ns#">
      <rdf:Description rdf:about=""/>
   </rdf:RDF>
</x:xmpmeta>
                                                                                                    
                                                                                                    
                                                                                                    
                                                                                                    
                                                                                                    
                                                                                                    
                                                                                                    
                                                                                                    
                                                                                                    
                                                                                                    
                                                                                                    
                                                                                                    
                                                                                                    
                                                                                                    
                                                                                                    
                                                                                                    
                                                                                                    
                                                                                                    
                                                                                                    
                                                                                                    
                           
<?xpacket end="w"?></metadata>

  <path d="M822.7,562c-0.045,0-.088,0-0.13,0a1.942,1.942,0,0,0-1.371.6l-0.042.038-5.726,5.762-0.105.187a2.382,2.382,0,0,0-.327,1.287l0,0V581h19V562H822.7Zm9,12.034h-2.123a0.456,0.456,0,0,1,0-.912H831.7A0.456,0.456,0,0,1,831.7,574.036Zm0.774-3.652H817.078a0.646,0.646,0,0,1-.423-1.029l5.536-5.571a0.52,0.52,0,0,1,.44-0.225h9.842v6.825h0Z" transform="translate(-815 -562)"/>
</svg>
