<svg xmlns="http://www.w3.org/2000/svg" width="18" height="16" viewBox="0 0 18 16">
  <metadata><?xpacket begin="﻿" id="W5M0MpCehiHzreSzNTczkc9d"?>
<x:xmpmeta xmlns:x="adobe:ns:meta/" x:xmptk="Adobe XMP Core 5.6-c138 79.159824, 2016/09/14-01:09:01        ">
   <rdf:RDF xmlns:rdf="http://www.w3.org/1999/02/22-rdf-syntax-ns#">
      <rdf:Description rdf:about=""/>
   </rdf:RDF>
</x:xmpmeta>
                                                                                               
                           
<?xpacket end="w"?></metadata>

  <path d="M816,531.662v9.772A1.587,1.587,0,0,0,817.6,543h1.5V530.1h-1.5A1.587,1.587,0,0,0,816,531.662Zm16.4-1.564h-1.5V543h1.5a1.587,1.587,0,0,0,1.6-1.564v-9.773A1.586,1.586,0,0,0,832.4,530.1Zm-3.6-1.339A1.782,1.782,0,0,0,827,527h-4a1.782,1.782,0,0,0-1.8,1.76V530.1h-0.9V543h9.4V530.1h-0.9v-1.339Zm-1.2,1.339h-5.2v-1.339a0.594,0.594,0,0,1,.6-0.586h4a0.593,0.593,0,0,1,.6.586V530.1Z" transform="translate(-816 -527)"/>
</svg>
