<svg xmlns="http://www.w3.org/2000/svg" width="20" height="11.125" viewBox="0 0 20 11.125">
  <path d="M390.783,21.97h1.2a1.033,1.033,0,0,0,.546-0.23,0.828,0.828,0,0,0,.164-0.507s-0.024-1.549.721-1.777,1.676,1.5,2.675,2.159a1.947,1.947,0,0,0,1.33.391l2.671-.036s1.4-.083.735-1.144a8.685,8.685,0,0,0-1.986-2.219c-1.676-1.5-1.451-1.258.567-3.855,1.228-1.581,1.72-2.546,1.566-2.96a1.2,1.2,0,0,0-1.05-.29l-3.008.018a0.7,0.7,0,0,0-.388.066,0.82,0.82,0,0,0-.265.312,16.679,16.679,0,0,1-1.111,2.264c-1.339,2.2-1.875,2.312-2.094,2.175-0.509-.318-0.382-1.276-0.382-1.958,0-2.128.335-3.015-.651-3.245a5.312,5.312,0,0,0-1.4-.135,6.706,6.706,0,0,0-2.5.246c-0.342.162-.606,0.522-0.445,0.543a1.37,1.37,0,0,1,.887.431,2.72,2.72,0,0,1,.3,1.314s0.178,2.505-.413,2.816c-0.406.213-.962-0.222-2.156-2.214a18.3,18.3,0,0,1-1.073-2.149,0.864,0.864,0,0,0-.248-0.323,1.271,1.271,0,0,0-.462-0.18l-2.858.018a1,1,0,0,0-.587.192,0.583,0.583,0,0,0-.011.492s2.237,5.055,4.771,7.6a7,7,0,0,0,4.961,2.183h0Z" transform="translate(-381 -11)"/>
</svg>
